{
  "type": "service_account",
  "project_id": "yourproject",
  "private_key_id": "d262297c5be90f7f409b26c0bc813e00530d706d",
  "private_key": "-----BEGIN PRIVATE KEY-----\nMIIECBIBADANBgkqhkiG9w0BAQEFAASCBKcwggSjAgEAAoIBAQCnP7Zm3EQizmG9\n1OnimBR1VsOChjl2y14iI3Mq/BiBqZNeHfeDtENNhJgpAw8E6tnhsET2Ua657inI\njKA++N8KQkGdU4lnp6Ajkw3UnA1LrejVfCkzY3Tmrb2FC1DM9xR78N9S6pdkFSi1\nCFAmF2bEMZ7cxgSstOEBmw1aqZRxfyQo7kTmzUuqHosr+09qwn/LI/FgZVyYrBIh\nUFw68dXbdjYGE1km1U5KeKn+Z0TrW37wvRwoye4PFIN6c6m4ZmTZIeopYAJQLn56\nn0c8AJ3yNNi8jpknNL5OynY0AsEkK6XJFoaM5+okjOiUFZOxkiQdbLEeQGRvaEZS\nE+SroxO5AgMBAAECggEACwWu0JxrbMwjUrvS1nvgJ0kv9SzBjJPDsPtwm4XbMJpm\nIPxXw6kwNqOKf/NuEeHPY6lhVhwVKDbrBTGdXaEQWUWmENyrRXadiL1S2pmWjQ+u\n9KOBjJvdSFbtZ/SntHuucNTznCw5N3TnMU0VCSRJgccPuZbe7Sng2qFRvJFIpups\nnGEDxqKawVLpZgD3OuKKOUPxGrFhmzB0ekzk/WoaZf3bhuTUofnvdp1+pZiWrsOE\nQNnbuD0KF591eUiPyu/e/zXRXjkb7OlSzpOva9a4fPhISctVmYmNwh2m1K50yZcL\n6Sgo8aDvGLr2rK6WZk+TDKMnsFGWkk50HTB234ILDQKBgQDSELL+m1URAN7BhOpI\ni8A3sZ1YKHu2zRaGYYS2dy3BolL7qoJr09TAuJEHIkf9XvPxgwsJBpIhD8GK3/xx\nx9jmT803nfoh5EhZfRR6fYT6SrAk31vnnKUX2t/TsNypZ6vcKYnoxujLHl4iR3x+\nNpKRyKWNCtp2n8PmHuGviYEzjQKBgQDL0i8+PB2N/yOUtUZtQdu70x7rh3TTKylL\nteogLCDUrFjNvK05C6oaikGdc2taamAm//J6shH3OpK6IFqOWmcKaIFW3QbJM1V/\nlp8+ZXpXMn1m3EboFDX76akSzYSX99wgzNBfc6VFgGhVTHgGb7apJKloGgUrU6JQ\n3CBHcKmf3QKBgGiZ/CegPZm77zA5+Veqj0qsXQdbEU+TjFXaFXWuntA+/kdnPo5m\n6xgUT9NXlLVsJNjsQgB6jyV7bQq0QkZ+F1mH/05kkftyazx0dlAQVLk1m8SgnGkW\nrXbVfIMzHI4Wm5OD87I/6gfK1WEIa8uFbTK+0QEMmIBdSfU7B3KbbAS5AoGBAIuk\njJOiEkmoJVOMQx02AvsTcVrDKopHRvrFPwwdz7yF/C2w+CleUYPvd3cNjd6bhRcT\nQqlHeUGeUsrMwd5IF9KsuPivZCfTUN+ibaYNVp2JTRt9DeORfU8Dzr/AKPkJazrZ\nuGW9UN1mVZUjWBRo04fdQ2e8dBA0M8AcoMzxZnXNAoGAINf0c/SLW56m50MAP+Lv\ngCYVoPK4BEbPtFGtpGFFMHhq0qTk+z3IQwSGHWXUTX4b2qgn8vMrfm/VAYVszbsa\nzqXy8fzXWEOgnLVXh3UUCh4tBUrEAPnsfmP32E2ZCSgXWhq9D3to6PwfhHrLx09W\nichx4EkWdZx59mnYaS/FcqE=\n-----END PRIVATE KEY-----\n",
  "client_email": "yourproject@appspot.gserviceaccount.com",
  "client_id": "118055300962389160147",
  "auth_uri": "https://accounts.google.com/o/oauth2/auth",
  "token_uri": "https://accounts.google.com/o/oauth2/token",
  "auth_provider_x509_cert_url": "https://www.googleapis.com/oauth2/v1/certs",
  "client_x509_cert_url": "https://www.googleapis.com/robot/v1/metadata/x509/yourproject%40appspot.gserviceaccount.com"
}
